Hwid,Push Token,User ID,Last App Open
208A92CC-51DD-44B3-8E99-418DA414726E,29A25275-7A27-4805-AA83-2F09DA09191C,vaska@fbr.com,2018-01-02 13:00:46
C774CC91-5D45-45DE-B192-F00EA3C1997D,,petka@unicef.org,2020-12-31 23:59:59
558167CC-5EFF-4225-B74D-51636F42FB12,ACD5F63B-81BF-4349-AB16-25292301FC5A,kessika@zog.org,2021-01-01 04:20:00
0D9BA4B3-EC3E-46FD-B339-01D67FF28AB0,F01E7A80-C228-4236-BDEC-2B66EE9F970D,tolyan@rkn.ru,2021-02-03 14:44:44
B4D8DBC4-7955-452B-B76F-7412844BAFD9,,,2021-03-08 12:34:56